%YAML 1.1
%TAG !u! tag:unity3d.com,2011:
--- !u!1045 &1
EditorBuildSettings:
  m_ObjectHideFlags: 0
  serializedVersion: 2
  m_Scenes:
  - enabled: 1
    path: Assets/SamplesResources/Scenes/0-Main.unity
    guid: a09cb257d566c489595b16ab37547666
  m_configObjects:
    UnityEditor.XR.ARCore.ARCoreSettings: {fileID: 11400000, guid: 700708618749b2941bf47c518712b514,
      type: 2}
    com.unity.xr.arfoundation.simulation_settings: {fileID: 11400000, guid: 5e6d716a1938e2044a237435fe886751,
      type: 2}
    com.unity.xr.management.loader_settings: {fileID: 11400000, guid: e304473788ef3b2418867be0ac81e6e2,
      type: 2}
